^C:\USERS\MARPE\DESKTOP\ДОКУМЕНТЫ\ДОКУМЕНТЫ С УЧЕБЫ\2 CЕМЕСТР\ПРОГРАММИРОВАНИЕ\ПРОЕКТ\OSCYLOSKOPY DATABASE\X64\RELEASE\ANALOG_OSCILLOSCOPE.OBJ|C:\USERS\MARPE\DESKTOP\ДОКУМЕНТЫ\ДОКУМЕНТЫ С УЧЕБЫ\2 CЕМЕСТР\ПРОГРАММИРОВАНИЕ\ПРОЕКТ\OSCYLOSKOPY DATABASE\X64\RELEASE\DIGITAL_OSCILLOSCOPE.OBJ|C:\USERS\MARPE\DESKTOP\ДОКУМЕНТЫ\ДОКУМЕНТЫ С УЧЕБЫ\2 CЕМЕСТР\ПРОГРАММИРОВАНИЕ\ПРОЕКТ\OSCYLOSKOPY DATABASE\X64\RELEASE\ELECTRICAL_EQUIPMENT.OBJ|C:\USERS\MARPE\DESKTOP\ДОКУМЕНТЫ\ДОКУМЕНТЫ С УЧЕБЫ\2 CЕМЕСТР\ПРОГРАММИРОВАНИЕ\ПРОЕКТ\OSCYLOSKOPY DATABASE\X64\RELEASE\GENERATOR.OBJ|C:\USERS\MARPE\DESKTOP\ДОКУМЕНТЫ\ДОКУМЕНТЫ С УЧЕБЫ\2 CЕМЕСТР\ПРОГРАММИРОВАНИЕ\ПРОЕКТ\OSCYLOSKOPY DATABASE\X64\RELEASE\MAIN.OBJ|C:\USERS\MARPE\DESKTOP\ДОКУМЕНТЫ\ДОКУМЕНТЫ С УЧЕБЫ\2 CЕМЕСТР\ПРОГРАММИРОВАНИЕ\ПРОЕКТ\OSCYLOSKOPY DATABASE\X64\RELEASE\OSCILLOSCOPE.OBJ|C:\USERS\MARPE\DESKTOP\ДОКУМЕНТЫ\ДОКУМЕНТЫ С УЧЕБЫ\2 CЕМЕСТР\ПРОГРАММИРОВАНИЕ\ПРОЕКТ\OSCYLOSKOPY DATABASE\X64\RELEASE\RESEARCHER.OBJ
C:\USERS\MARPE\DESKTOP\Документы\Документы с учебы\2 Cеместр\Программирование\Проект\OSCYLOSKOPY DATABASE\X64\RELEASE\OSCYLOSKOPY DATABASE.EXE
C:\USERS\MARPE\DESKTOP\ДОКУМЕНТЫ\ДОКУМЕНТЫ С УЧЕБЫ\2 CЕМЕСТР\ПРОГРАММИРОВАНИЕ\ПРОЕКТ\OSCYLOSKOPY DATABASE\X64\RELEASE\OSCYLOSKOPY DATABASE.PDB
