^C:\USERS\MARPE\DESKTOP\ДОКУМЕНТЫ\ДОКУМЕНТЫ С УЧЕБЫ\2 CЕМЕСТР\ПРОГРАММИРОВАНИЕ\ПРОЕКТ\OSCYLOSKOPY DATABASE\OSCYLOSKOP.CPP
/c /ZI /JMC /nologo /W3 /WX- /diagnostics:classic /sdl /Od /D _MBCS /Gm- /EHsc /RTC1 /MDd /GS /fp:precise /permissive- /Zc:wchar_t /Zc:forScope /Zc:inline /Fo"X64\DEBUG\\" /Fd"X64\DEBUG\VC141.PDB" /Gd /TP /FC C:\USERS\MARPE\DESKTOP\ДОКУМЕНТЫ\ДОКУМЕНТЫ С УЧЕБЫ\2 CЕМЕСТР\ПРОГРАММИРОВАНИЕ\ПРОЕКТ\OSCYLOSKOPY DATABASE\OSCYLOSKOP.CPP
^C:\USERS\MARPE\DESKTOP\ДОКУМЕНТЫ\ДОКУМЕНТЫ С УЧЕБЫ\2 CЕМЕСТР\ПРОГРАММИРОВАНИЕ\ПРОЕКТ\OSCYLOSKOPY DATABASE\ELECTRICAL_EQUIPMENT.CPP
/c /ZI /JMC /nologo /W3 /WX- /diagnostics:classic /sdl /Od /D _MBCS /Gm- /EHsc /RTC1 /MDd /GS /fp:precise /permissive- /Zc:wchar_t /Zc:forScope /Zc:inline /Fo"X64\DEBUG\\" /Fd"X64\DEBUG\VC141.PDB" /Gd /TP /FC C:\USERS\MARPE\DESKTOP\ДОКУМЕНТЫ\ДОКУМЕНТЫ С УЧЕБЫ\2 CЕМЕСТР\ПРОГРАММИРОВАНИЕ\ПРОЕКТ\OSCYLOSKOPY DATABASE\ELECTRICAL_EQUIPMENT.CPP
^C:\USERS\MARPE\DESKTOP\ДОКУМЕНТЫ\ДОКУМЕНТЫ С УЧЕБЫ\2 CЕМЕСТР\ПРОГРАММИРОВАНИЕ\ПРОЕКТ\OSCYLOSKOPY DATABASE\ANALOG_OSCILLOSCOPE.CPP
/c /ZI /JMC /nologo /W3 /WX- /diagnostics:classic /sdl /Od /D _MBCS /Gm- /EHsc /RTC1 /MDd /GS /fp:precise /permissive- /Zc:wchar_t /Zc:forScope /Zc:inline /Fo"X64\DEBUG\\" /Fd"X64\DEBUG\VC141.PDB" /Gd /TP /FC C:\USERS\MARPE\DESKTOP\ДОКУМЕНТЫ\ДОКУМЕНТЫ С УЧЕБЫ\2 CЕМЕСТР\ПРОГРАММИРОВАНИЕ\ПРОЕКТ\OSCYLOSKOPY DATABASE\ANALOG_OSCILLOSCOPE.CPP
^C:\USERS\MARPE\DESKTOP\ДОКУМЕНТЫ\ДОКУМЕНТЫ С УЧЕБЫ\2 CЕМЕСТР\ПРОГРАММИРОВАНИЕ\ПРОЕКТ\OSCYLOSKOPY DATABASE\DIGITAL_OSCILLOSCOPE.CPP
/c /ZI /JMC /nologo /W3 /WX- /diagnostics:classic /sdl /Od /D _MBCS /Gm- /EHsc /RTC1 /MDd /GS /fp:precise /permissive- /Zc:wchar_t /Zc:forScope /Zc:inline /Fo"X64\DEBUG\\" /Fd"X64\DEBUG\VC141.PDB" /Gd /TP /FC C:\USERS\MARPE\DESKTOP\ДОКУМЕНТЫ\ДОКУМЕНТЫ С УЧЕБЫ\2 CЕМЕСТР\ПРОГРАММИРОВАНИЕ\ПРОЕКТ\OSCYLOSKOPY DATABASE\DIGITAL_OSCILLOSCOPE.CPP
^C:\USERS\MARPE\DESKTOP\ДОКУМЕНТЫ\ДОКУМЕНТЫ С УЧЕБЫ\2 CЕМЕСТР\ПРОГРАММИРОВАНИЕ\ПРОЕКТ\OSCYLOSKOPY DATABASE\GENERATOR.CPP
/c /ZI /JMC /nologo /W3 /WX- /diagnostics:classic /sdl /Od /D _MBCS /Gm- /EHsc /RTC1 /MDd /GS /fp:precise /permissive- /Zc:wchar_t /Zc:forScope /Zc:inline /Fo"X64\DEBUG\\" /Fd"X64\DEBUG\VC141.PDB" /Gd /TP /FC C:\USERS\MARPE\DESKTOP\ДОКУМЕНТЫ\ДОКУМЕНТЫ С УЧЕБЫ\2 CЕМЕСТР\ПРОГРАММИРОВАНИЕ\ПРОЕКТ\OSCYLOSKOPY DATABASE\GENERATOR.CPP
^C:\USERS\MARPE\DESKTOP\ДОКУМЕНТЫ\ДОКУМЕНТЫ С УЧЕБЫ\2 CЕМЕСТР\ПРОГРАММИРОВАНИЕ\ПРОЕКТ\OSCYLOSKOPY DATABASE\MAIN.CPP
/c /ZI /JMC /nologo /W3 /WX- /diagnostics:classic /sdl /Od /D _MBCS /Gm- /EHsc /RTC1 /MDd /GS /fp:precise /permissive- /Zc:wchar_t /Zc:forScope /Zc:inline /Fo"X64\DEBUG\\" /Fd"X64\DEBUG\VC141.PDB" /Gd /TP /FC C:\USERS\MARPE\DESKTOP\ДОКУМЕНТЫ\ДОКУМЕНТЫ С УЧЕБЫ\2 CЕМЕСТР\ПРОГРАММИРОВАНИЕ\ПРОЕКТ\OSCYLOSKOPY DATABASE\MAIN.CPP
^C:\USERS\MARPE\DESKTOP\ДОКУМЕНТЫ\ДОКУМЕНТЫ С УЧЕБЫ\2 CЕМЕСТР\ПРОГРАММИРОВАНИЕ\ПРОЕКТ\OSCYLOSKOPY DATABASE\OSCILLOSCOPE.CPP
/c /ZI /JMC /nologo /W3 /WX- /diagnostics:classic /sdl /Od /D _MBCS /Gm- /EHsc /RTC1 /MDd /GS /fp:precise /permissive- /Zc:wchar_t /Zc:forScope /Zc:inline /Fo"X64\DEBUG\\" /Fd"X64\DEBUG\VC141.PDB" /Gd /TP /FC C:\USERS\MARPE\DESKTOP\ДОКУМЕНТЫ\ДОКУМЕНТЫ С УЧЕБЫ\2 CЕМЕСТР\ПРОГРАММИРОВАНИЕ\ПРОЕКТ\OSCYLOSKOPY DATABASE\OSCILLOSCOPE.CPP
^C:\USERS\MARPE\DESKTOP\ДОКУМЕНТЫ\ДОКУМЕНТЫ С УЧЕБЫ\2 CЕМЕСТР\ПРОГРАММИРОВАНИЕ\ПРОЕКТ\OSCYLOSKOPY DATABASE\RESEARCHER.CPP
/c /ZI /JMC /nologo /W3 /WX- /diagnostics:classic /sdl /Od /D _MBCS /Gm- /EHsc /RTC1 /MDd /GS /fp:precise /permissive- /Zc:wchar_t /Zc:forScope /Zc:inline /Fo"X64\DEBUG\\" /Fd"X64\DEBUG\VC141.PDB" /Gd /TP /FC C:\USERS\MARPE\DESKTOP\ДОКУМЕНТЫ\ДОКУМЕНТЫ С УЧЕБЫ\2 CЕМЕСТР\ПРОГРАММИРОВАНИЕ\ПРОЕКТ\OSCYLOSKOPY DATABASE\RESEARCHER.CPP
